{"ip":"5.101.17.188"}
{
  "ip": "5.101.17.188",
  "city": "Kazan",
  "region": "Tatarstan Republic",
  "country": "RU",
  "loc": "55.7887,49.1221",
  "org": "AS28840 PJSC TATTELECOM",
  "postal": "422525",
  "timezone": "Europe/Moscow",
  "readme": "https://ipinfo.io/missingauth"
}